{
    "attribution": "", 
    "description": "", 
    "center": "0.0092,0.0047,16", 
    "bounds": "0,0,0.0184,0.0092", 
    "minzoom": "15", 
    "version": "1.0.0", 
    "template": "", 
    "maxzoom": "19", 
    "name": "lab_tech"
}